{
  "project_info": {
    "project_number": "470730716031",
    "project_id": "izi-way",
    "storage_bucket": "izi-way.appspot.com"
  },
  "client": [
    {
      "client_info": {
        "mobilesdk_app_id": "1:470730716031:android:fc9e8725c17270f7c6204a",
        "android_client_info": {
          "package_name": "com.iziway"
        }
      },
      "oauth_client": [
        {
          "client_id": "470730716031-toje8fe4l8atqthukms97n13na6q4ui6.apps.googleusercontent.com",
          "client_type": 3
        }
      ],
      "api_key": [
        {
          "current_key": "AIzaSyAM6jSGzQOSMBpiATlfxYUijJeWzhxqJKY"
        }
      ],
      "services": {
        "appinvite_service": {
          "other_platform_oauth_client": [
            {
              "client_id": "470730716031-toje8fe4l8atqthukms97n13na6q4ui6.apps.googleusercontent.com",
              "client_type": 3
            }
          ]
        }
      }
    }
  ],
  "configuration_version": "1"
}